ACCT420 Group 2 Final Report
…
# 3. Use it on your data frame
df_to_test <- predict_lasso_prob(df_to_test, lasso_coefs)

# 4. Amend df with the new classifications
df_to_test <- df_to_test %>% mutate(overvaluation_prediction = ifelse(lasso_prob > 0.5, 1, 0)) %>%
  dplyr::select(-lasso_prob)

# 5. Collect companies predicted to have overvaluation
predicted_positive_overvaluation <- df_to_test %>% dplyr::select(code, overvaluation_prediction) %>% rename(pred_overvaluation=overvaluation_prediction)

predicted_positive_overvaluation

# A tibble: 4,180 × 2
    code pred_overvaluation
   <dbl>              <dbl>
 1   677                  0
 2   801                  0
 3   823                  0
 4   824                  0
 5   985                  0
 6  1045                  0
 7  1069                  0
 8  1105                  0
 9  1148                  0
10  1174                  0
# ℹ 4,170 more rows
…
